Collection,ISBN,Barcode,Title,Authors,PubDate,Publisher,Description,Keywords,DeweyDecimal,LibraryCongressNumber
#,,,,,,,,,,
#,,,,,,,,,,
# Instructions,,,,,,,,,,
#,Remove all lines below the first one before adding books to this spreadsheet though any lines starting with a '#' will be ignored as comments,,,,,,,,,
#,You can upload either CSV (comma delimited) or TSV (tab-delimited) files.  Files are by default CSV unless they have a file suffix of *.txt or *.tsv in which case they will be processed as TSV files,,,,,,,,,
#,,,,,,,,,,
# Required,,,,,,,,,,
#,Collection,"REQUIRED -- this field is the email address of the owner, the only exception is for pre-defined collection manager accounts - e.g. 'Main Library', or 'HR Library'",,,,,,,,
#,ISBN,"Preferred identifier for book - can be either ISBN10 or ISBN13- we will use this information to get the rest of the book information from Amazon if available - if not available, we will use the rest of the book fields to enter the book",,,,,,,,
#,Barcode,Unique ID - usually presented by a barcoded label on the book - not required but strongly recommended,,,,,,,,
#,Title,Title should always be included to double-check that the Title returned by the ISBN matches up,,,,,,,,
#,,,,,,,,,,
# Required if ISBN is missing,,,,,,,,,,
#,Authors,"Authors should be separated by a semi-colon ';' and preferably in firstname lastname format, e.g. Wei Wang; Christopher J. Roberts; Douglas Smith",,,,,,,,
#,PubDate,Just the year - e.g. 2009 and only the year,,,,,,,,
#,,
# Optional Fields,,
#,Publisher,
#,Description,Summary of the book
#,Keywords,Any keywords or tags that could be useful in searching for the book
#,DeweyDecimal,
#,LibraryCongressNumber,Library of Congress classification number
#,,
#,,
#,,
#,,
#,,
#,,
#,,